…
Data can be sampled from the elicitation object:

``` r
samp_cont <- cont_sample_data(my_elic_cont, round = 2)
#> ✔ Rescaled min and max for variable "var3".
#> ✔ Data for "var1", "var2", and "var3" sampled successfully using the "basic" method.

samp_cont
#> # A tibble: 18,000 × 3
#>    id      var   value
#>    <chr>   <chr> <dbl>
#>  1 5ac97e0 var1      1
#>  2 5ac97e0 var1      1
#>  3 5ac97e0 var1      1
#>  4 5ac97e0 var1     -2
#>  5 5ac97e0 var1     -2
#>  6 5ac97e0 var1     -4
#>  7 5ac97e0 var1      0
#>  8 5ac97e0 var1     -4
#>  9 5ac97e0 var1     -4
#> 10 5ac97e0 var1      1
#> # ℹ 17,990 more rows
```
…
View the data stored in the elicitation object:

``` r
cat_get_data(my_elic_cat,
             topic = "Mechanism1")
#> # A tibble: 120 × 5
#>    id      option   category   confidence estimate
#>    <chr>   <chr>    <chr>           <dbl>    <dbl>
#>  1 5ac97e0 option_1 category_1         15        8
#>  2 5ac97e0 option_1 category_2         15        0
#>  3 5ac97e0 option_1 category_3         15       85
#>  4 5ac97e0 option_1 category_4         15        2
#>  5 5ac97e0 option_1 category_5         15        5
#>  6 5ac97e0 option_2 category_1         35        2
#>  7 5ac97e0 option_2 category_2         35       11
#>  8 5ac97e0 option_2 category_3         35       18
#>  9 5ac97e0 option_2 category_4         35        2
#> 10 5ac97e0 option_2 category_5         35       67
#> # ℹ 110 more rows
```

Data can be sampled from the elicitation object using the unweighted or
weighted method:

``` r
samp_cat_unweighted <- cat_sample_data(my_elic_cat,
                            topic = "Mechanism1",
                            method = "unweighted")
#> ✔ Data sampled successfully using "unweighted" method.
samp_cat_unweighted
#> # A tibble: 2,400 × 7
#>    id      option   category_1 category_2 category_3 category_4 category_5
#>    <chr>   <chr>         <dbl>      <dbl>      <dbl>      <dbl>      <dbl>
#>  1 5ac97e0 option_1     0.0553          0      0.849    0.0159      0.0798
#>  2 5ac97e0 option_1     0.0974          0      0.842    0.0173      0.0429
#>  3 5ac97e0 option_1     0.0844          0      0.879    0.00321     0.0332
#>  4 5ac97e0 option_1     0.0846          0      0.869    0.00919     0.0367
#>  5 5ac97e0 option_1     0.0995          0      0.843    0.00974     0.0482
#>  6 5ac97e0 option_1     0.0652          0      0.882    0.00673     0.0461
#>  7 5ac97e0 option_1     0.0648          0      0.872    0.0239      0.0394
#>  8 5ac97e0 option_1     0.0795          0      0.837    0.00301     0.0809
#>  9 5ac97e0 option_1     0.0751          0      0.873    0.0277      0.0240
#> 10 5ac97e0 option_1     0.0755          0      0.853    0.00846     0.0626
#> # ℹ 2,390 more rows

samp_cat_weighted <- cat_sample_data(my_elic_cat,
                            topic = "Mechanism3",
                            method = "weighted")
#> ✔ Data sampled successfully using "weighted" method.
samp_cat_weighted
#> # A tibble: 1,800 × 7
#>    id      option   category_1 category_2 category_3 category_4 category_5
#>    <chr>   <chr>         <dbl>      <dbl>      <dbl>      <dbl>      <dbl>
#>  1 5ac97e0 option_1    0.0143     0.0222    0.00247       0.907     0.0543
#>  2 5ac97e0 option_1    0.0506     0.00409   0.00775       0.853     0.0842
#>  3 5ac97e0 option_1    0.00573    0.0217    0.000407      0.898     0.0738
#>  4 5ac97e0 option_1    0.0280     0.0331    0.0287        0.793     0.117 
#>  5 5ac97e0 option_1    0.0228     0.0127    0.00122       0.901     0.0625
#>  6 5ac97e0 option_1    0.0123     0.0801    0.00360       0.878     0.0256
#>  7 5ac97e0 option_1    0.0495     0.00561   0.00775       0.807     0.130 
#>  8 5ac97e0 option_1    0.0161     0.0277    0.00144       0.856     0.0985
#>  9 5ac97e0 option_1    0.0214     0.0119    0.00641       0.859     0.101 
#> 10 5ac97e0 option_1    0.0266     0.0283    0.00177       0.833     0.110 
#> # ℹ 1,790 more rows
```
…
