A user friendly interface to aggregate elicitation data • elicitr
…
Data can be sampled from the elicitation object:

samp <- cont_sample_data(my_elicitation, round = 2)
#> ✔ Rescaled min and max for variable "var3".
#> ✔ Data for "var1", "var2", and "var3" sampled successfully using the "basic" method.
samp
#> # A tibble: 18,000 × 3
#>    id      var   value
#>    <chr>   <chr> <dbl>
#>  1 5ac97e0 var1     -2
#>  2 5ac97e0 var1     -2
#>  3 5ac97e0 var1      1
#>  4 5ac97e0 var1      1
#>  5 5ac97e0 var1     -2
#>  6 5ac97e0 var1      0
#>  7 5ac97e0 var1      0
#>  8 5ac97e0 var1     -2
#>  9 5ac97e0 var1      0
#> 10 5ac97e0 var1     -2
#> # ℹ 17,990 more rows
…
