…
<img src="man/figures/README-plot-group-1.png" alt="" width="100%" />

Data can be sampled from the elicitation object:

``` r
samp_cont <- cont_sample_data(my_elic_cont, round = 2)
#> ✔ Rescaled min and max for variable "var3".
#> ✔ Data for "var1", "var2", and "var3" sampled successfully using the "basic" method.

samp_cont
#> # A tibble: 18,000 × 3
#>    id      var   value
#>    <chr>   <chr> <dbl>
#>  1 5ac97e0 var1      1
#>  2 5ac97e0 var1      1
#>  3 5ac97e0 var1     -2
#>  4 5ac97e0 var1     -2
#>  5 5ac97e0 var1      1
#>  6 5ac97e0 var1      1
#>  7 5ac97e0 var1     -2
#>  8 5ac97e0 var1      1
#>  9 5ac97e0 var1      1
#> 10 5ac97e0 var1     -2
#> # ℹ 17,990 more rows
```
…
View the data stored in the elicitation object:

``` r
cat_get_data(my_elic_cat,
             topic = "Mechanism1")
#> # A tibble: 120 × 5
#>    id      category   option   confidence estimate
#>    <chr>   <chr>      <chr>         <dbl>    <dbl>
#>  1 5ac97e0 category_1 option_1         15        8
#>  2 5ac97e0 category_2 option_1         15        0
#>  3 5ac97e0 category_3 option_1         15       85
#>  4 5ac97e0 category_4 option_1         15        2
#>  5 5ac97e0 category_5 option_1         15        5
#>  6 5ac97e0 category_1 option_2         35        2
#>  7 5ac97e0 category_2 option_2         35       11
#>  8 5ac97e0 category_3 option_2         35       18
#>  9 5ac97e0 category_4 option_2         35        2
#> 10 5ac97e0 category_5 option_2         35       67
#> # ℹ 110 more rows
```

Data can be sampled from the elicitation object using the basic or
bootstrap method:

``` r
samp_cat <- cat_sample_data(my_elic_cat,
                            topic = "Mechanism1",
                            method = "basic")
#> ✔ Data sampled successfully using "basic" method.
samp_cat
#> # A tibble: 2,400 × 7
#>    id      option   category_1 category_2 category_3 category_4 category_5
#>    <chr>   <chr>         <dbl>      <dbl>      <dbl>      <dbl>      <dbl>
#>  1 5ac97e0 option_1     0.0879          0      0.826   0.0247       0.0612
#>  2 5ac97e0 option_1     0.0452          0      0.917   0.0163       0.0219
#>  3 5ac97e0 option_1     0.0705          0      0.910   0.000390     0.0190
#>  4 5ac97e0 option_1     0.0385          0      0.942   0.00231      0.0172
#>  5 5ac97e0 option_1     0.0604          0      0.859   0.0190       0.0618
#>  6 5ac97e0 option_1     0.109           0      0.840   0.0116       0.0396
#>  7 5ac97e0 option_1     0.0645          0      0.817   0.0516       0.0665
#>  8 5ac97e0 option_1     0.0448          0      0.887   0.0123       0.0559
#>  9 5ac97e0 option_1     0.119           0      0.756   0.0750       0.0502
#> 10 5ac97e0 option_1     0.0896          0      0.849   0.0317       0.0294
#> # ℹ 2,390 more rows

samp_cat <- cat_sample_data(my_elic_cat,
                            topic = "Mechanism3",
                            method = "bootstrap")
#> ✔ Data sampled successfully using "bootstrap" method.
samp_cat
#> # A tibble: 1,800 × 7
#>    id      option   category_1 category_2 category_3 category_4 category_5
#>    <chr>   <chr>         <dbl>      <dbl>      <dbl>      <dbl>      <dbl>
#>  1 5ac97e0 option_1    0.0332     0.00647   0.0426        0.801     0.117 
#>  2 5ac97e0 option_1    0.0300     0.00762   0.00216       0.883     0.0774
#>  3 5ac97e0 option_1    0.0209     0.00303   0.0176        0.915     0.0439
#>  4 5ac97e0 option_1    0.0137     0.0239    0.0142        0.875     0.0732
#>  5 5ac97e0 option_1    0.0293     0.0172    0.00436       0.822     0.127 
#>  6 5ac97e0 option_1    0.00812    0.00286   0.00411       0.933     0.0522
#>  7 5ac97e0 option_1    0.0176     0.0143    0.0118        0.847     0.109 
#>  8 5ac97e0 option_1    0.00447    0.0115    0.00817       0.909     0.0668
#>  9 5ac97e0 option_1    0.0268     0.0517    0.000157      0.799     0.122 
#> 10 5ac97e0 option_1    0.0233     0.0477    0.0104        0.874     0.0447
#> # ℹ 1,790 more rows
```
…
