Sample continuous data — cont_sample_data • elicitr
…
# Sample data for the second round for all variables
samp <- cont_sample_data(my_elicit, round = 2)
#> ✔ Rescaled min and max for variable "var3".
#> ✔ Data for "var1", "var2", and "var3" sampled successfully using the "basic" method.
samp
#> # A tibble: 18,000 × 3
#>    id      var   value
#>    <chr>   <chr> <dbl>
#>  1 5ac97e0 var1      0
#>  2 5ac97e0 var1      0
#>  3 5ac97e0 var1     -4
#>  4 5ac97e0 var1      1
#>  5 5ac97e0 var1      1
#>  6 5ac97e0 var1     -4
#>  7 5ac97e0 var1      1
#>  8 5ac97e0 var1     -2
#>  9 5ac97e0 var1     -2
#> 10 5ac97e0 var1      1
#> # ℹ 17,990 more rows
…
