…
## Datasets

There are three datasets included in the package for demonstration
purposes:
[`?topic_1`](https://crewdecisions.github.io/elicitr/reference/cat_data.md),
[`?topic_2`](https://crewdecisions.github.io/elicitr/reference/cat_data.md),
and
[`?topic_3`](https://crewdecisions.github.io/elicitr/reference/cat_data.md):

``` r
topic_1
#> # A tibble: 120 × 5
#>    name            option   category   confidence estimate
#>    <chr>           <chr>    <chr>           <dbl>    <dbl>
#>  1 Derek Maclellan option_1 category_1         15     0.08
#>  2 Derek Maclellan option_1 category_2         15     0   
#>  3 Derek Maclellan option_1 category_3         15     0.85
#>  4 Derek Maclellan option_1 category_4         15     0.02
#>  5 Derek Maclellan option_1 category_5         15     0.05
#>  6 Derek Maclellan option_2 category_1         35     0.02
#>  7 Derek Maclellan option_2 category_2         35     0.11
#>  8 Derek Maclellan option_2 category_3         35     0.18
#>  9 Derek Maclellan option_2 category_4         35     0.02
#> 10 Derek Maclellan option_2 category_5         35     0.67
#> # ℹ 110 more rows
```

``` r
topic_2
#> # A tibble: 100 × 5
#>    name              option   category   confidence estimate
#>    <chr>             <chr>    <chr>           <dbl>    <dbl>
#>  1 Christopher Felix option_1 category_1        100     0.09
#>  2 Christopher Felix option_1 category_2        100     0.21
#>  3 Christopher Felix option_1 category_3        100     0.11
#>  4 Christopher Felix option_1 category_4        100     0.59
#>  5 Christopher Felix option_1 category_5        100     0   
#>  6 Christopher Felix option_2 category_1         20     0.09
#>  7 Christopher Felix option_2 category_2         20     0.05
#>  8 Christopher Felix option_2 category_3         20     0.33
#>  9 Christopher Felix option_2 category_4         20     0.24
#> 10 Christopher Felix option_2 category_5         20     0.29
#> # ℹ 90 more rows
```

``` r
topic_3
#> # A tibble: 90 × 5
#>    name            option   category   confidence estimate
#>    <chr>           <chr>    <chr>           <dbl>    <dbl>
#>  1 Derek Maclellan option_1 category_1         80     0.02
#>  2 Derek Maclellan option_1 category_2         80     0.02
#>  3 Derek Maclellan option_1 category_3         80     0.01
#>  4 Derek Maclellan option_1 category_4         80     0.87
#>  5 Derek Maclellan option_1 category_5         80     0.08
#>  6 Derek Maclellan option_2 category_1         50     0.11
#>  7 Derek Maclellan option_2 category_2         50     0.09
#>  8 Derek Maclellan option_2 category_3         50     0.17
#>  9 Derek Maclellan option_2 category_4         50     0.09
#> 10 Derek Maclellan option_2 category_5         50     0.54
#> # ℹ 80 more rows
```
…
## Get data

Data can be retrieved from the `elic_cat` object with the
[`cat_get_data()`](https://crewdecisions.github.io/elicitr/reference/cat_get_data.md)
function:

``` r
cat_get_data(my_elicitation, topic = "topic_1")
#> # A tibble: 120 × 5
#>    id              option   category   confidence estimate
#>    <chr>           <chr>    <chr>           <dbl>    <dbl>
#>  1 Derek Maclellan option_1 category_1         15        8
#>  2 Derek Maclellan option_1 category_2         15        0
#>  3 Derek Maclellan option_1 category_3         15       85
#>  4 Derek Maclellan option_1 category_4         15        2
#>  5 Derek Maclellan option_1 category_5         15        5
#>  6 Derek Maclellan option_2 category_1         35        2
#>  7 Derek Maclellan option_2 category_2         35       11
#>  8 Derek Maclellan option_2 category_3         35       18
#>  9 Derek Maclellan option_2 category_4         35        2
#> 10 Derek Maclellan option_2 category_5         35       67
#> # ℹ 110 more rows
```

Notice that the name of the expert is not anonymised in this case and
assigned to the column `id`.

Data can also be retrieved only for given options:

``` r
cat_get_data(my_elicitation, topic = "topic_2", option = "option_1")
#> # A tibble: 25 × 5
#>    id      option   category   confidence estimate
#>    <chr>   <chr>    <chr>           <dbl>    <dbl>
#>  1 e51202e option_1 category_1        100        9
#>  2 e51202e option_1 category_2        100       21
#>  3 e51202e option_1 category_3        100       11
#>  4 e51202e option_1 category_4        100       59
#>  5 e51202e option_1 category_5        100        0
#>  6 e78cbf4 option_1 category_1         75       31
#>  7 e78cbf4 option_1 category_2         75       27
#>  8 e78cbf4 option_1 category_3         75        9
#>  9 e78cbf4 option_1 category_4         75       17
#> 10 e78cbf4 option_1 category_5         75       16
#> # ℹ 15 more rows
```
…
### Sample data

Data can be sampled using the function `cat_sample()` (see the variable
documentation for the explanation of the sampling methods). Here we
sample 100 values for each option:

``` r
samp <- cat_sample_data(my_elicitation,
                        method = "unweighted",
                        topic = "topic_1",
                        n_votes = 100)
#> ✔ Data sampled successfully using "unweighted" method.
samp
#> # A tibble: 2,400 × 7
#>    id              option category_1 category_2 category_3 category_4 category_5
#>    <chr>           <chr>       <dbl>      <dbl>      <dbl>      <dbl>      <dbl>
#>  1 Derek Maclellan optio…     0.0476          0      0.864   0.0171       0.0712
#>  2 Derek Maclellan optio…     0.0567          0      0.904   0.00235      0.0374
#>  3 Derek Maclellan optio…     0.0661          0      0.869   0.0268       0.0377
#>  4 Derek Maclellan optio…     0.0648          0      0.882   0.00612      0.0467
#>  5 Derek Maclellan optio…     0.0376          0      0.929   0.0101       0.0236
#>  6 Derek Maclellan optio…     0.0925          0      0.851   0.0102       0.0463
#>  7 Derek Maclellan optio…     0.0717          0      0.877   0.0144       0.0370
#>  8 Derek Maclellan optio…     0.0779          0      0.875   0.0125       0.0348
#>  9 Derek Maclellan optio…     0.118           0      0.769   0.0674       0.0457
#> 10 Derek Maclellan optio…     0.0904          0      0.844   0.000713     0.0650
#> # ℹ 2,390 more rows
```
…
