Continuous variables • elicitr
…
Sample data

Data can be sampled using the function cont_sample()
(see the variable documentation for the explanation of the sampling
methods). Here we sample 1000 values for each variable:

samp <- cont_sample_data(my_elicitation, round = 2)
#> ✔ Rescaled min and max for variable "var3".
#> ✔ Data for "var1", "var2", and "var3" sampled successfully using the "basic" method.
samp
#> # A tibble: 18,000 × 3
#>    id      var   value
#>    <chr>   <chr> <dbl>
#>  1 5ac97e0 var1      1
#>  2 5ac97e0 var1     -4
#>  3 5ac97e0 var1      1
#>  4 5ac97e0 var1      1
#>  5 5ac97e0 var1     -4
#>  6 5ac97e0 var1      1
#>  7 5ac97e0 var1      0
#>  8 5ac97e0 var1      1
#>  9 5ac97e0 var1      1
#> 10 5ac97e0 var1      1
#> # ℹ 17,990 more rows
…
